Meta-Data
…
Load Packages

Code

library(readxl)
library(openxlsx)

Import Excel File

Code

meta_excel_file <- read_excel(path = "metadata/metadata_data/field_lists03mar2023.xlsx")
meta_excel_file

# A tibble: 134 × 7
   `Field Label`            `API Name`     Type  Help …¹ Formula Attri…² Field…³
   <chr>                    <chr>          <chr> <chr>   <chr>   <chr>   <chr>  
 1 Abbreviation             Abbreviation_… Text… <NA>    <NA>    <NA>    "Page …
 2 Acknowledgement language Acknowledgeme… Text… Input … <NA>    <NA>    "Page …
 3 Actual grants made       Actual_grants… Pick… Has th… <NA>    <NA>    "Page …
 4 Address                  BillingAddress Addr… <NA>    <NA>    <NA>    "Page …
 5 Annual Revenue           AnnualRevenue  Curr… <NA>    <NA>    <NA>     <NA>  
 6 Average Grant Amount     Grant_Amounts… Mult… On ave… <NA>    <NA>    "Page …
 7 Billing Geocode Accuracy BillingGeocod… Pick… <NA>    <NA>    <NA>     <NA>  
 8 Billing Latitude         BillingLatitu… Numb… <NA>    <NA>    <NA>     <NA>  
 9 Billing Longitude        BillingLongit… Numb… <NA>    <NA>    <NA>     <NA>  
10 BOFC ACC Name            bofc__BOFC_AC… Form… <NA>    Name    <NA>     <NA>  
# … with 124 more rows, and abbreviated variable names ¹​`Help Text`,
#   ²​Attributes, ³​`Field Usage`
…
Create a vector of sheet names

Code

sheet_names <- c("Account", "Assay__c", "Instrument__c", "Software__c", "Technology_Submission__c", "Performance_Detail_Submission")

Import data from multiple sheets by name

Code

data_by_names <- lapply(sheet_names, function(x)read_excel(path = "metadata/metadata_data/field_lists03mar2023.xlsx", sheet = x))
data_by_names

[[1]]
# A tibble: 134 × 7
   `Field Label`            `API Name`     Type  Help …¹ Formula Attri…² Field…³
   <chr>                    <chr>          <chr> <chr>   <chr>   <chr>   <chr>  
 1 Abbreviation             Abbreviation_… Text… <NA>    <NA>    <NA>    "Page …
 2 Acknowledgement language Acknowledgeme… Text… Input … <NA>    <NA>    "Page …
 3 Actual grants made       Actual_grants… Pick… Has th… <NA>    <NA>    "Page …
 4 Address                  BillingAddress Addr… <NA>    <NA>    <NA>    "Page …
 5 Annual Revenue           AnnualRevenue  Curr… <NA>    <NA>    <NA>     <NA>  
 6 Average Grant Amount     Grant_Amounts… Mult… On ave… <NA>    <NA>    "Page …
 7 Billing Geocode Accuracy BillingGeocod… Pick… <NA>    <NA>    <NA>     <NA>  
 8 Billing Latitude         BillingLatitu… Numb… <NA>    <NA>    <NA>     <NA>  
 9 Billing Longitude        BillingLongit… Numb… <NA>    <NA>    <NA>     <NA>  
10 BOFC ACC Name            bofc__BOFC_AC… Form… <NA>    Name    <NA>     <NA>  
# … with 124 more rows, and abbreviated variable names ¹​`Help Text`,
#   ²​Attributes, ³​`Field Usage`

[[2]]
# A tibble: 120 × 7
   `Field Label`                   API N…¹ Type  Help …² Formula Attri…³ Field…⁴
   <chr>                           <chr>   <chr> <chr>   <lgl>   <chr>   <chr>  
 1 Antibody Target                 Antibo… Mult… <NA>    NA      <NA>    "Page …
 2 Antibody Target (del)           Antibo… Mult… <NA>    NA      <NA>     <NA>  
 3 Antibody vs Aptamer-based dete… Antibo… Pick… <NA>    NA      <NA>    "Page …
 4 Antimicrobial Resistance Class  Antimi… Mult… Antimi… NA      <NA>    "Page …
 5 Assay Aim                       Assay_… Pick… <NA>    NA      <NA>    "Page …
 6 Assay Name                      Name    Text… <NA>    NA      <NA>    "Page …
 7 Assay Target                    Assay_… Mult… <NA>    NA      <NA>    "Page …
 8 Assay Target (ToBeDeleted)      Assay_… Pick… <NA>    NA      <NA>     <NA>  
 9 AST Output                      AST_Ou… Mult… Follow… NA      <NA>    "Page …
10 Business Intelligence Contact … Busine… Pick… <NA>    NA      <NA>    "Page …
# … with 110 more rows, and abbreviated variable names ¹​`API Name`,
#   ²​`Help Text`, ³​Attributes, ⁴​`Field Usage`

[[3]]
# A tibble: 75 × 7
   `Field Label`                   API N…¹ Type  Help …² Formula Attri…³ Field…⁴
   <chr>                           <chr>   <chr> <lgl>   <lgl>   <chr>   <chr>  
 1 Additional Operating Conditions Additi… Text… NA      NA      <NA>    "Page …
 2 Assay Aim                       Assay_… Pick… NA      NA      <NA>    "Page …
 3 Assay Target                    Assay_… Mult… NA      NA      <NA>    "Page …
 4 AST Output                      AST_Ou… Mult… NA      NA      <NA>    "Page …
 5 Business Intelligence Contact … Busine… Pick… NA      NA      <NA>    "Page …
 6 COGS(instrument)                COGS_i… Numb… NA      NA      <NA>    "Page …
 7 Comments                        Commen… Text… NA      NA      <NA>    "Page …
 8 Companion solutions             Compan… Pick… NA      NA      <NA>    "Page …
 9 Company/Institution Name        Compan… Look… NA      NA      Requir… "Page …
10 Connectivity options            Connec… Pick… NA      NA      <NA>    "Page …
# … with 65 more rows, and abbreviated variable names ¹​`API Name`,
#   ²​`Help Text`, ³​Attributes, ⁴​`Field Usage`

[[4]]
# A tibble: 56 × 7
   `Field Label`                   API N…¹ Type  Help …² Formula Attri…³ Field…⁴
   <chr>                           <chr>   <chr> <lgl>   <lgl>   <chr>   <chr>  
 1 Antimicrobial Resistance Class  Antimi… Mult… NA      NA      <NA>    "Page …
 2 Assay Aim                       Assay_… Pick… NA      NA      <NA>    "Page …
 3 Business Intelligence Contact … Busine… Pick… NA      NA      <NA>    "Page …
 4 Comments                        Commen… Text… NA      NA      <NA>    "Page …
 5 Companion solutions             Compan… Pick… NA      NA      <NA>    "Page …
 6 Company/Institution Name        Compan… Look… NA      NA      Requir… "Page …
 7 Created By ID                   Create… Look… NA      NA      Requir… "Page …
 8 Created Date                    Create… Date… NA      NA      Requir…  <NA>  
 9 Data format                     Data_f… Pick… NA      NA      <NA>    "Page …
10 Deleted                         IsDele… Chec… NA      NA      Requir…  <NA>  
# … with 46 more rows, and abbreviated variable names ¹​`API Name`,
#   ²​`Help Text`, ³​Attributes, ⁴​`Field Usage`

[[5]]
# A tibble: 147 × 7
   `Field Label`                   API N…¹ Type  Help …² Formula Attri…³ Field…⁴
   <chr>                           <chr>   <chr> <chr>   <chr>   <chr>   <chr>  
 1 Additional Operating Conditions Additi… Text… <NA>    <NA>    <NA>    "Page …
 2 Antibody Target                 Antibo… Mult… <NA>    <NA>    <NA>    "Page …
 3 Antibody vs Aptamer-based dete… Antibo… Pick… <NA>    <NA>    <NA>    "Page …
 4 Antimicrobial Resistance Class  Antimi… Mult… <NA>    <NA>    <NA>    "Page …
 5 Assay Aim                       Assay_… Pick… <NA>    <NA>    <NA>    "Page …
 6 Assay Target                    Assay_… Mult… <NA>    <NA>    <NA>    "Page …
 7 Assay Target (del)              Assay_… Pick… <NA>    <NA>    <NA>     <NA>  
 8 AST Output                      AST_Ou… Mult… <NA>    <NA>    <NA>    "Page …
 9 Business Intelligence Contact … Busine… Pick… <NA>    <NA>    <NA>    "Page …
10 COGS(instrument)                COGS_i… Numb… <NA>    <NA>    <NA>    "Page …
# … with 137 more rows, and abbreviated variable names ¹​`API Name`,
#   ²​`Help Text`, ³​Attributes, ⁴​`Field Usage`

[[6]]
# A tibble: 106 × 7
   `Field Label`                   API N…¹ Type  Help …² Formula Attri…³ Field…⁴
   <chr>                           <chr>   <chr> <chr>   <lgl>   <chr>   <chr>  
 1 95% CI for Clinical Sensitivit… X95_CI… Perc… <NA>    NA      <NA>    "Page …
 2 95% CI for Clinical Sensitivit… X95_CI… Perc… <NA>    NA      <NA>    "Page …
 3 95% CI for Clinical Specificit… X95_CI… Perc… <NA>    NA      <NA>    "Page …
 4 95% CI for Clinical Specificit… X95_CI… Perc… <NA>    NA      <NA>    "Page …
 5 Age                             Age__c  Mult… <NA>    NA      <NA>    "Page …
 6 Analytical sensitivity/LOD      Analyt… Numb… <NA>    NA      <NA>    "Page …
 7 Analytical sensitivity/LOD unit Analyt… Pick… <NA>    NA      <NA>    "Page …
 8 Antibody Target                 Antibo… Mult… <NA>    NA      <NA>    "Page …
 9 Articles in Review              Articl… Numb… <NA>    NA      <NA>    "Page …
10 Assay                           Assay_… Look… <NA>    NA      <NA>    "Page …
# … with 96 more rows, and abbreviated variable names ¹​`API Name`,
#   ²​`Help Text`, ³​Attributes, ⁴​`Field Usage`
…
